INDEX VERSION 1.131+C:\Users\Karan\Desktop\GET 2021 Assignments\eclipse-workspace\.metadata\.plugins\org.eclipse.jdt.core
864280915.index
729284941.index
151751402.index
3069814104.index
3576984597.index
767302083.index
2695994386.index
4240958973.index
2389259831.index
1302599570.index
2904404966.index
3059646886.index
1857334988.index
1677634569.index
2410497742.index
1631832855.index
3028378775.index
